<?xml version="1.0" encoding="UTF-8"?>
<CustomTab xmlns="http://soap.sforce.com/2006/04/metadata">
    <description>Created by Lightning App Builder</description>
    <flexiPage>Global_Position</flexiPage>
    <label>Global Position</label>
    <mobileReady>true</mobileReady>
    <motif>Custom27: Laptop</motif>
</CustomTab>
